/home/param/myproject/src/main/java/code/niki/SingleChat/MessagesTemplateMap.java
/home/param/myproject/src/main/java/code/niki/InfoExtractor/DealsConversationManager.java
/home/param/myproject/src/main/java/code/niki/InfoExtractor/NikiOutput.java
/home/param/myproject/src/main/java/code/niki/SingleChat/DealsConversationHooks.java
/home/param/myproject/src/main/java/code/niki/InfoExtractor/Action.java
/home/param/myproject/src/main/java/code/niki/SingleChat/Metrics/ResponseMetrics.java
/home/param/myproject/src/main/java/code/niki/SingleChat/ChatBot.java
/home/param/myproject/src/main/java/code/niki/helpers/DealsServiceInvoker.java
/home/param/myproject/src/main/java/code/niki/InfoExtractor/LanguageProcessor.java
/home/param/myproject/src/main/java/code/niki/InfoExtractor/GestureGateway.java
/home/param/myproject/src/main/java/code/niki/InfoExtractor/SubServiceSwitch.java
/home/param/myproject/src/main/java/code/niki/InfoExtractor/GenericHandler.java
/home/param/myproject/src/main/java/code/niki/SingleChat/App.java
/home/param/myproject/src/main/java/code/niki/InfoExtractor/Cricket.java
/home/param/myproject/src/main/java/code/niki/InfoExtractor/DomainGateway.java
/home/param/myproject/src/main/java/code/niki/InfoExtractor/CommonResources.java
/home/param/myproject/src/main/java/code/niki/SingleChat/TrendingResourcesApi.java
/home/param/myproject/src/main/java/code/niki/SingleChat/Health.java
